[
  {
    "name": "Text",
    "scale": 255,
    "precision": 0,
    "javatyp": "java.lang.String",
    "databasetyp": "varchar"
  },
  {
    "name": "Referenzfeld",
    "scale": 255,
    "precision": 0,
    "javatyp": "java.lang.String",
    "databasetyp": "varchar"
  },
  {
    "name": "Nachschlagefeld",
    "scale": 255,
    "precision": 0,
    "javatyp": "java.lang.String",
    "databasetyp": "varchar"
  },
  {
    "name": "Email",
    "scale": 255,
    "precision": 0,
    "javatyp": "java.lang.String",
    "databasetyp": "varchar",
    "defaultcomponenttype": "Email"
  },
  {
    "name": "PhoneNumber",
    "scale": 255,
    "precision": 0,
    "javatyp": "java.lang.String",
    "databasetyp": "varchar",
    "defaultcomponenttype": "PhoneNumber"
  },
  {
    "name": "Hyperlink",
    "scale": 1000,
    "precision": 0,
    "javatyp": "java.lang.String",
    "databasetyp": "varchar",
    "defaultcomponenttype": "Hyperlink"
  },
  {
    "name": "Memo",
    "scale": 4000,
    "precision": 0,
    "javatyp": "java.lang.String",
    "databasetyp": "varchar"
  },
  {
    "name": "Text (Large Object)",
    "javatyp": "java.lang.String",
    "databasetyp": "clob"
  },
  {
    "name": "Binär (Large Object)",
    "javatyp": "[B",
    "databasetyp": "blob"
  },
  {
    "name": "Datum",
    "javatyp": "java.util.Date",
    "databasetyp": "date"
  },
  {
    "name": "Dokumentenanhang",
    "scale": 255,
    "javatyp": "org.nuclos.server.genericobject.valueobject.GenericObjectDocumentFile",
    "databasetyp": "blob"
  },
  {
    "name": "Ganzzahl",
    "scale": 9,
    "precision": 0,
    "javatyp": "java.lang.Integer",
    "databasetyp": "number"
  },
  {
    "name": "Kommazahl (9,4)",
    "scale": 9,
    "precision": 4,
    "javatyp": "java.lang.Double",
    "databasetyp": "number",
    "outputformat": "#,##0.0000"
  },
  {
    "name": "Kommazahl (9,2)",
    "scale": 9,
    "precision": 2,
    "javatyp": "java.lang.Double",
    "databasetyp": "number",
    "outputformat": "#,##0.00"
  },
  {
    "name": "Ja\/Nein",
    "scale": 1,
    "precision": 0,
    "javatyp": "java.lang.Boolean",
    "databasetyp": "number"
  },
  {
    "name": "Verschlüsselter Text",
    "scale": 255,
    "precision": 0,
    "javatyp": "org.nuclos.common.NuclosPassword",
    "databasetyp": "varchar"
  },
  {
    "name": "Bild",
    "scale": 255,
    "precision": 0,
    "javatyp": "org.nuclos.common.NuclosImage",
    "databasetyp": "blob"
  },
  {
    "name": "Autonummer",
    "scale": 9,
    "precision": 0,
    "javatyp": "java.lang.Integer",
    "databasetyp": "number",
    "defaultcomponenttype": "Autonummer"
  }
]
